<?xml version="1.0" encoding="iso-8859-1"?>
<!-- Generator: Adobe Illustrator 19.0.0, SVG Export Plug-In . SVG Version: 6.00 Build 0)  -->
<svg version="1.1" xmlns="http://www.w3.org/2000/svg" xmlns:xlink="http://www.w3.org/1999/xlink" x="0px" y="0px"
	 viewBox="0 0 512 512" style="enable-background:new 0 0 512 512;" xml:space="preserve" width="24" height="24">
<g>
	<g>
		<g>
			<polygon points="136.027,81.558 496.792,81.558 496.792,380.453 15.208,380.453 15.208,81.558 115.75,81.558 115.75,66.35 
				0,66.35 0,395.66 512,395.66 512,66.35 136.027,66.35 			"/>
			<polygon points="354.345,365.245 481.584,365.245 481.584,254.831 466.376,254.831 466.376,350.037 354.345,350.037 			"/>
			<rect x="279.319" y="350.036" width="54.748" height="15.208"/>
			<polygon points="263.604,35.934 263.604,9.984 248.396,9.984 248.396,35.934 0,35.934 0,51.142 512,51.142 512,35.934 			"/>
			<path d="M0,426.076h147.133l-23.129,71.245l14.465,4.695l11.474-35.341H362.06l11.474,35.341L388,497.321l-23.129-71.245H512
				v-15.208H0V426.076z M163.121,426.076h185.758l8.243,25.39H154.878L163.121,426.076z"/>
			<polygon points="213.071,177.322 70.548,319.845 81.302,330.6 213.071,198.829 298.93,284.688 428.471,155.147 428.471,208.211 
				443.679,208.211 443.679,129.184 364.654,129.184 364.654,144.392 417.717,144.392 298.93,263.181 			"/>
		</g>
	</g>
</g>
<g>
</g>
<g>
</g>
<g>
</g>
<g>
</g>
<g>
</g>
<g>
</g>
<g>
</g>
<g>
</g>
<g>
</g>
<g>
</g>
<g>
</g>
<g>
</g>
<g>
</g>
<g>
</g>
<g>
</g>
</svg>
