<?xml version="1.0" encoding="iso-8859-1"?>

<svg version="1.1" xmlns="http://www.w3.org/2000/svg" xmlns:xlink="http://www.w3.org/1999/xlink" x="0px" y="0px"
	 viewBox="0 0 477.875 477.875" style="enable-background:new 0 0 477.875 477.875;" xml:space="preserve" width="20px" height="20px">

		<path d="M460.804,0H17.071C7.645,0,0.004,7.641,0.004,17.067V102.4c0.001,4.836,2.054,9.445,5.649,12.681l165.018,148.514V460.8
			c-0.004,9.426,7.633,17.07,17.059,17.075c2.651,0.001,5.266-0.615,7.637-1.8l102.4-51.2c5.786-2.891,9.441-8.806,9.438-15.275
			V263.595l165.018-148.48c3.604-3.243,5.658-7.866,5.649-12.715V17.067C477.871,7.641,470.23,0,460.804,0z M443.737,94.805
			L278.72,243.285c-3.604,3.243-5.657,7.866-5.649,12.715v143.053l-68.267,34.133V256c-0.001-4.836-2.054-9.445-5.649-12.68
			L34.137,94.805V34.133h409.6V94.805z"/>

</svg>
